383
886
777
915
793
335
386
492
649
421
362
27
690
59
763
926
540
426
172
736
211
368
567
429
782
530
862
123
67
135
929
802
22
58
69
167
393
456
11
42
229
373
919
784
537
198
324
315
370
413
526
91
980
956
873
170
996
281
305
925
84
327
336
505
846
729
313
857
124
895
582
545
814
367
434
364
43
750
87
808
276
178
788
584
403
651
754
399
932
60
676
739
12
226
586
94
539
795
570
378
467
601
97
902
317
652
756
301
280
286
441
865
689
444
619
440
31
117
771
481
675
709
927
856
497
353
965
306
683
219
624
528
871
732
829
503
19
270
708
715
340
149
796
723
618
245
451
921
555
379
488
764
228
841
350
193
500
34
914
987
743
491
227
365
859
936
432
551
437
275
407
474
121
858
395
29
237
235
818
428
143
928
529
776
404
443
613
538
606
840
904
128
688
369
917
470
183
490
499
772
725
644
590
139
954
786
669
82
542
464
197
507
355
804
348
611
622
828
299
343
746
568
422
311
810
605
801
661
730
878
320
626
522
465
416
282
258
924
637
62
600
36
452
899
550
468
71
973
131
881
930
933
894
660
163
199
981
959
773
813
668
190
95
466
90
684
376
107
445
179
418
887
412
659
9
210
342
587
206
713
372
321
255
819
599
721
939
811
940
667
705
127
150
984
658
920
224
269
396
81
630
292
972
672
850
625
385
222
640
898
298
524
209
581
155
994
4
769
273
860
142
579
884
993
205
621
504
961
326
259
944
202
506
21
842
868
189
872
908
958
498
753
248
303
333
133
648
890
46
797
249
990
33
363
253
892
686
125
152
975
188
157
436
460
414
304
28
50
748
556
794
697
699
39
2
681
647
159
151
535
134
339
692
215
629
49
964
285
177
900
238
971
949
289
988
144
390
682
541
569
826
232
261
360
23
761
309
425
677
234
57
614
168
358
312
100
346
726
916
552
578
946
290
970
51
80
631
593
627
214
512
479
610
969
274
641
620
433
888
338
566
770
284
417
260
849
217
518
945
783
458
483
607
478
757
314
471
459
438
25
388
74
233
493
839
173
847
431
462
791
115
521
574
947
951
231
740
54
30
98
325
516
580
218
812
977
685
536
176
207
759
744
911
950
236
560
105
563
244
711
805
934
291
375
955
589
768
918
882
822
982
717
93
126
486
543
377
762
775
88
710
294
17
137
691
153
943
573
328
18
836
963
55
130
571
633
789
73
604
851
250
485
6
195
639
120
967
596
532
196
427
40
283
72
398
830
63
347
714
47
435
204
278
262
41
848
272
122
154
821
457
747
171
701
703
653
907
728
806
720
308
334
698
991
52
559
10
16
109
0
53
114
989
147
223
787
875
254
494
181
603
487
415
296
825
722
297
32
595
999
962
382
266
86
583
476
116
820
525
136
643
337
310
225
815
853
8
657
827
910
577
976
931
99
952
735
184
774
997
693
439
985
957
354
716
852
662
482
15
790
263
37
341
352
665
511
517
361
83
351
112
300
638
489
104
679
141
636
844
760
673
264
548
295
877
833
156
960
823
140
323
75
469
475
666
912
192
174
718
216
472
496
948
160
562
424
719
480
938
557
220
905
391
671
180
24
663
279
742
330
515
349
186
634
387
287
519
712
733
799
734
450
837
89
704
816
447
700
45
92
664
166
484
165
608
745
995
527
213
513
257
138
495
158
356
645
446
111
883
344
267
13
650
832
876
953
635
598
741
937
800
609
164
523
251
751
986
302
79
591
547
561
187
394
680
752
463
695
66
978
966
553
3
35
861
906
381
14
185
897
408
329
879
316
585
765
616
409
366
26
508
397
544
565
546
534
807
834
869
696
602
941
293
628
162
942
870
332
880
854
738
411
623
371
674
132
968
766
983
169
798
520
221
44
855
401
755
780
923
863
400
410
374
901
867
461
392
533
707
694
191
554
654
448
576
5
724
242
781
265
161
767
277
212
96
208
974
502
549
194
384
835
758
632
558
38
430
7
110
889
564
803
588
200
572
256
510
885
319
896
203
594
175
106
501
271
108
423
345
514
182
129
78
246
893
56
737
241
118
318
779
979
247
617
998
824
656
102
838
113
454
702
331
148
642
64
288
230
239
509
146
61
874
817
442
913
101
809
252
48
380
575
70
992
477
687
655
240
831
706
473
866
20
322
406
1
845
405
389
77
612
455
103
749
935
864
592
307
420
243
727
201
449
65
785
922
76
357
531
85
268
909
145
778
891
731
903
843
597
419
792
402
646
453
678
119
68
615
359
670
