83
86
77
15
93
35
92
49
21
62
27
90
59
63
26
40
72
36
11
68
67
29
82
30
23
2
22
58
69
56
42
73
19
84
37
98
24
70
13
91
80
96
81
5
25
46
57
95
45
14
34
64
43
50
87
8
76
78
88
3
51
54
99
32
60
39
12
94
1
97
17
52
41
65
89
44
31
71
75
9
53
6
28
18
55
79
0
7
74
4
38
48
10
61
20
16
33
66
85
47
